
[15-Aug-2017 17:04:55] - Starting reconstruction...
[15-Aug-2017 17:04:55] - Using kdata file ..\MR_Recon_Pipeline_Data\InputData\Patient03-lowres-recons-dualgated\meas_MID02763_FID311848_Tho_Abd_RadVibeNyuNavi_082016_kdata_clean_lowres.mat
[15-Aug-2017 17:04:55] - Using gating file ..\MR_Recon_Pipeline_Data\InputData\Patient03-lowres-recons-dualgated\recon-RosetteNav-respCard-5x5gates\gating-signal-rosettenav-respCard-5x5gates.mat
[15-Aug-2017 17:05:49] - Extracting miniheader info from twix_obj...
[15-Aug-2017 17:06:12] - 0   , obj: 0.002516, L-S: 0
[15-Aug-2017 17:06:26] - 1   , obj: 0.002157, L-S: 0
[15-Aug-2017 17:06:35] - 2   , obj: 0.001358, L-S: 0
[15-Aug-2017 17:06:44] - 3   , obj: 0.000941, L-S: 0
[15-Aug-2017 17:06:55] - 4   , obj: 0.000926, L-S: 1
[15-Aug-2017 17:07:00] - Saving reconstruction to MAT file
[15-Aug-2017 17:07:12] - Writing Gating Signal for PET Recon Pipeline...
[15-Aug-2017 17:07:12] - Reconstruction finished. Moving files to ..\MR_Recon_Pipeline_Data\OutputResults\Patient03-lowres-recons-dualgated\recon-RosetteNav-respCard-5x5gates ...