
[21-Dec-2017 12:29:07] - Starting reconstruction...
[21-Dec-2017 12:29:07] - Using kdata file ..\MR_Recon_Pipeline_Data\InputData\Patient01-M-wip991-PT\kdata_compressed_filtered.twix
[21-Dec-2017 12:29:07] - Using gating file ..\MR_Recon_Pipeline_Data\InputData\Patient01-M-wip991-PT\recon1-10iter\gating_signal_PT_resp_10gates.mat
[21-Dec-2017 12:29:19] - Extracting miniheader info from twix_obj...
[21-Dec-2017 12:31:52] - 0   , obj: 0.020040, L-S: 0