osfactor = 0
centerFreq = 0
fov.read = 400
fov.phase = 400
fov.slice = 396
kdata.dwellTime = 0
kdata.dims.nCol = 512
kdata.dims.nLin = 0
kdata.dims.nPar = 0
kdata.dims.nCha = 0
scanTime = 0
TE = [5290 15000 25000 35000 45000 55000 65000 75000 85000 95000 105000 115000]
TR = 9000
lPartitions = 0
nImagesPerSlab = 0
offset.dSag = 2.77108433735
offset.dCor = 25.3012048192
offset.dTra = 0.0722891566265
normalVector.dSag = 1
normalVector.dCor = 0
normalVector.dTra = 0
globalTablePos.dSag = 0
globalTablePos.dCor = 0
globalTablePos.dTra = 0
ImageSize.nRow = 0
ImageSize.nCol = 0
ImageSize.nSlice = 0
navigator.dwellTime = 2500