BytePosition   TagContent     TagType        LastTimeTag(ms)

402612         FFFF0000       128            62             
2968856        E1002000       64             464            
6701560        E1001000       16             1048           
6723972        FF7F8000       128            1052           
8140244        E1002000       64             1274           
9862220        E1001000       16             1544           
9862224        E1002001       64             1544           
9865660        E1001000       16             1544           
9865664        E1002001       64             1544           
9868892        E1001001       32             1545           
9868896        E1002001       64             1545           
9872076        E1001001       32             1545           
9872080        E1002001       64             1545           
13296696       E1002000       64             2083           
18455772       E1002000       64             2892           
23760484       E1002000       64             3726           
29002256       E1002000       64             4550           
34096664       E1002000       64             5352           
36648888       E1001000       16             5753           
36652348       E1001001       32             5753           
39221296       E1002000       64             6156           
40031924       E1002001       64             6284           
44584072       E1002000       64             6998           
49991824       E1002000       64             7847           
55227968       E1002000       64             8669           
60368288       E1002000       64             9478           
62801068       E1001000       16             9861           
62804260       E1001001       32             9862           
65421284       E1002000       64             10272          
70628992       E1002000       64             11089          
75995212       E1002000       64             11933          
81496636       E1002000       64             12797          
87017232       E1002000       64             13666          
92484520       E1002000       64             14525          
98180324       E1002000       64             15419          
103541272      E1002000       64             16263          
106371532      E1001000       16             16708          
106374868      E1001001       32             16708          
108830892      E1002000       64             17095          
114284248      E1002000       64             17954          
119912508      E1002000       64             18840          
125259476      E1002000       64             19682          
130389464      E1002000       64             20491          
135574808      E1002000       64             21308          
138387768      E1001000       16             21751          
138390776      E1001001       32             21751          
140917924      E1002000       64             22149          
146396852      E1002000       64             23013          
151822760      E1002000       64             23867          
157185344      E1002000       64             24711          
162555836      E1002000       64             25555          
167705288      E1002000       64             26367          
172705772      E1002000       64             27154          
173542700      E1001000       16             27286          
173545780      E1001001       32             27286          
177910264      E1002000       64             27973          
183400332      E1002000       64             28837          
189019784      E1002000       64             29724          
194564180      E1002000       64             30595          
199999108      E1002000       64             31452          
204674804      E1001000       16             32188          
204678080      E1001001       32             32188          
205250408      E1002000       64             32278          
210646004      E1002000       64             33127          
215980956      E1002000       64             33969          
221144940      E1002000       64             34783          
226311612      E1002000       64             35597          
231572076      E1002000       64             36426          
236875144      E1002000       64             37263          
242137692      E1002000       64             38095          
247402440      E1002000       64             38926          
252510444      E1002000       64             39731          
257410876      E1001000       16             40503          
257414248      E1001001       32             40504          
257499288      E1002000       64             40517          
262503368      E1002000       64             41307          
267599676      E1002000       64             42111          
272710260      E1002000       64             42918          
277851940      E1002000       64             43729          
282934400      E1001000       16             44532          
282937624      E1001001       32             44533          
283006596      E1002000       64             44544          
288127280      E1002000       64             45353          
293169224      E1002000       64             46150          
298226368      E1002000       64             46949          
300512632      E1001000       16             47311          
300515676      E1001001       32             47311          
303407588      E1002000       64             47768          
308619856      E1002000       64             48592          
313923280      E1002000       64             49431          
319033872      E1002000       64             50241          
324120332      E1002000       64             51045          
328735528      E1001000       16             51776          
328738728      E1001001       32             51776          
329056492      E1002000       64             51827          
334182100      E1002000       64             52638          
339367628      E1002000       64             53458          
344662512      E1002000       64             54297          
349962032      E1002000       64             55136          
355098376      E1002000       64             55948          
358097484      E1001000       16             56422          
358100776      E1001001       32             56422          
360167416      E1002000       64             56749          
365308844      E1002000       64             57564          
370491716      E1002000       64             58383          
375557992      E1002000       64             59184          
380511768      E1002000       64             59969          
382168204      E1001000       16             60231          
382171364      E1001001       32             60232          
385577924      E1002000       64             60771          
390620300      E1002000       64             61570          
395761984      E1002000       64             62384          
400874724      E1002000       64             63196          
405982680      E1002000       64             64005          
411037116      E1002000       64             64807          
411212584      E1001000       16             64835          
411215808      E1001001       32             64835          
416236884      E1002000       64             65631          
421476964      E1002000       64             66460          
426506444      E1002000       64             67257          
430750128      E1001000       16             67931          
430753328      E1001001       32             67931          
431446532      E1002000       64             68041          
436433312      E1002000       64             68833          
441451540      E1002000       64             69630          
446499240      E1002000       64             70431          
451330704      E1002000       64             71198          
456189800      E1002000       64             71970          
457370088      E1001000       16             72158          
457373164      E1001001       32             72158          
461033152      E1002000       64             72742          
465959660      E1002000       64             73526          
471002356      E1002000       64             74328          
476064312      E1002000       64             75135          
481085656      E1002000       64             75934          
482543392      E1001000       16             76167          
482546380      E1001001       32             76167          
486237700      E1002000       64             76753          
491647844      E1002000       64             77615          
497103760      E1002000       64             78484          
502567936      E1002000       64             79355          
508133656      E1002000       64             80242          
513540032      E1002000       64             81103          
518709544      E1002000       64             81925          
522681292      E1001000       16             82557          
522684228      E1001001       32             82558          
523917416      E1002000       64             82754          
529233592      E1002000       64             83601          
534581060      E1002000       64             84452          
539897200      E1002000       64             85299          
545119512      E1002000       64             86131          
550162752      E1002000       64             86935          
555060612      E1002000       64             87714          
558797320      E1001000       16             88313          
558800460      E1001001       32             88313          
559756396      E1002000       64             88466          
564537836      E1002000       64             89230          
569488304      E1002000       64             90020          
574569316      E1002000       64             90832          
579642412      E1002000       64             91641          
584718140      E1002000       64             92450          
589823524      E1002000       64             93267          
591488968      E1001000       16             93532          
591492152      E1001001       32             93533          
594972656      E1002000       64             94088          
600119452      E1002000       64             94910          
605274976      E1002000       64             95734          
610322952      E1002000       64             96538          
615268576      E1002000       64             97330          
616591452      E1001000       16             97541          
616594524      E1001001       32             97542          
620248888      E1002000       64             98125          
625519068      E1002000       64             98966          
630918704      E1002000       64             99828          
636409464      E1002000       64             100704         
641767476      E1002000       64             101561         
646957064      E1002000       64             102390         
652046244      E1002000       64             103204         
657278660      E1002000       64             104038         
662712044      E1002000       64             104905         
668204048      E1002000       64             105784         
673773836      E1002000       64             106675         
679217132      E1002000       64             107546         
684628348      E1002000       64             108413         
690132656      E1002000       64             109294         
695326312      E1002000       64             110126         
698665444      E1001000       16             110659         
698668548      E1001001       32             110660         
700577588      E1002000       64             110965         
705995008      E1002000       64             111832         
711385020      E1002000       64             112693         
716854640      E1002000       64             113570         
722219852      E1002000       64             114431         
727433380      E1002000       64             115268         
731364564      E1001000       16             115899         
731368092      E1001001       32             115899         
732536560      E1002000       64             116087         
737772204      E1002000       64             116926         
743010576      E1002000       64             117765         
748135340      E1002000       64             118587         
753101148      E1002000       64             119384         
755747952      E1001000       16             119809         
755751068      E1001001       32             119809         
758025548      E1002000       64             120175         
763095968      E1002000       64             120990         
768219480      E1002000       64             121811         
772688168      E1001000       16             122529         
772691324      E1001001       32             122529         
773353448      E1002000       64             122635         
778559540      E1002000       64             123470         
783817060      E1002000       64             124314         
788854376      E1002000       64             125123         
793832072      E1002000       64             125922         
795301204      E1001000       16             126159         
795304384      E1001001       32             126160         
798736516      E1002000       64             126711         
803583332      E1002000       64             127491         
808328352      E1002000       64             128258         
813013020      E1002000       64             129015         
818034052      E1002000       64             129824         
823339668      E1002000       64             130678         
828723136      E1002000       64             131544         
834195108      E1002000       64             132426         
836449820      E1001000       16             132788         
836465024      E1001001       32             132790         
839566380      E1002000       64             133290         
844786232      E1002000       64             134131         
849788592      E1002000       64             134936         
854858692      E1002000       64             135750         
860028348      E1002000       64             136582         
865222120      E1002000       64             137418         
870535424      E1002000       64             138275         
875884488      E1002000       64             139136         
881198368      E1002000       64             139993         
884768584      E1001000       16             140567         
884771628      E1001001       32             140568         
886290108      E1002000       64             140812         
891524712      E1002000       64             141656         
896886372      E1002000       64             142520         
902240208      E1002000       64             143384         
907406496      E1002000       64             144218         
912433696      E1002000       64             145027         
913942116      E1001000       16             145271         
913945432      E1001001       32             145271         
917381168      E1002000       64             145824         
922600780      E1002000       64             146663         
927760312      E1002000       64             147495         
932948292      E1002000       64             148334         
937925904      E1002000       64             149136         
942856428      E1002000       64             149930         
943745284      E1001000       16             150074         
943748284      E1001001       32             150074         
947803512      E1002000       64             150727         
952836604      E1002000       64             151539         
957890244      E1002000       64             152355         
962942348      E1002000       64             153172         
968006240      E1002000       64             153989         
973096572      E1002000       64             154810         
978067020      E1002000       64             155615         
982963648      E1002000       64             156406         
987738776      E1002000       64             157178         
992477604      E1002000       64             157945         
992644708      E1001000       16             157972         
992647980      E1001001       32             157973         
997365484      E1002000       64             158737         
1002292660     E1002000       64             159536         
1007276924     E1002000       64             160343         
1012298684     E1002000       64             161157         
1017319224     E1002000       64             161971         
1022336196     E1002000       64             162783         
1027520916     E1002000       64             163625         
1032679004     E1002000       64             164459         
1037627988     E1002000       64             165261         
1037843492     E1001000       16             165296         
1037846512     E1001001       32             165296         
1042777156     E1002000       64             166092         
1048002964     E1002000       64             166939         
1053320704     E1002000       64             167800         
1058623204     E1002000       64             168659         
1063789844     E1002000       64             169496         
1064692764     E1001000       16             169642         
1064695960     E1001001       32             169642         
1068834872     E1002000       64             170313         
1073815852     E1002000       64             171122         
1078783240     E1002000       64             171929         
1083646148     E1002000       64             172718         
1088549804     E1002000       64             173512         
1093399812     E1002000       64             174299         
1098449880     E1002000       64             175118         
1103496188     E1002000       64             175937         
1108363384     E1002000       64             176727         
1113254280     E1002000       64             177518         
1114617116     E1001000       16             177740         
1114620256     E1001001       32             177740         
1118160544     E1002000       64             178315         
1123279880     E1002000       64             179144         
1128463636     E1002000       64             179986         
1133637072     E1002000       64             180828         
1138658824     E1002000       64             181644         
1141375932     E1001000       16             182085         
1141379160     E1001001       32             182086         
1143672480     E1002000       64             182459         
1148687248     E1002000       64             183273         
1153672548     E1002000       64             184082         
1158490644     E1002000       64             184864         
1163254128     E1002000       64             185638         
1165340120     E1001000       16             185976         
1165343160     E1001001       32             185977         
1167995416     E1002000       64             186408         
1172920136     E1002000       64             187207         
1177932540     E1002000       64             188024         
1183028952     E1002000       64             188853         
1186076988     E1001000       16             189349         
1186079944     E1001001       32             189350         
1188170072     E1002000       64             189689         
1193178052     E1002000       64             190503         
1198075636     E1002000       64             191300         
1203032300     E1002000       64             192105         
1207794468     E1002000       64             192881         
1212567904     E1002000       64             193658         
1215599536     E1001000       16             194153         
1215602716     E1001001       32             194153         
1217411968     E1002000       64             194448         
1222241908     E1002000       64             195234         
1227007804     E1002000       64             196016         
1231777736     E1002000       64             196808         
1232865096     E1001000       16             196990         
1232868008     E1001001       32             196990         
1236587736     E1002000       64             197602         
1241345628     E1002000       64             198382         
1246003996     E1002000       64             199144         
1250706740     E1002000       64             199913         
1255469648     E1002000       64             200695         
1260315656     E1002000       64             201489         
1262651848     E1001000       16             201872         
1262666624     E1001001       32             201874         
1265123036     E1002000       64             202276         
1269914264     E1002000       64             203060         
1274840016     E1002000       64             203867         
1279730472     E1002000       64             204669         
1284559008     E1002000       64             205461         
1289412828     E1002000       64             206255         
1294123500     E1002000       64             207027         
1298853928     E1002000       64             207801         
1303619356     E1002000       64             208580         
1308441856     E1002000       64             209370         
1313342092     E1002000       64             210171         
1318074544     E1002000       64             210946         
1322752220     E1002000       64             211713         
1327528776     E1002000       64             212495         
1332272592     E1002000       64             213271         
1337004868     E1002000       64             214046         
1341717828     E1002000       64             214818         
1346422300     E1002000       64             215590         
1351036964     E1002000       64             216346         
1355673616     E1002000       64             217108         
1360239788     E1002000       64             217860         
1363421252     E1001000       16             218384         
1363424220     E1001001       32             218384         
1364874156     E1002000       64             218622         
1369642772     E1002000       64             219407         
1374530472     E1002000       64             220208         
1379442492     E1002000       64             221015         
1384408536     E1002000       64             221832         
1389291756     E1002000       64             222636         
1394065880     E1002000       64             223423         
1394683036     E1001000       16             223524         
1394686008     E1001001       32             223525         
1398896728     E1002000       64             224217         
1403710248     E1002000       64             225009         
1408493996     E1002000       64             225796         
1413171512     E1002000       64             226565         
1415796160     E1001000       16             226997         
1415799320     E1001001       32             226998         
1417831524     E1002000       64             227332         
1422638632     E1002000       64             228124         
1427517672     E1002000       64             228928         
1432559180     E1002000       64             229760         
1437567820     E1002000       64             230586         
1442491464     E1002000       64             231398         
1444932148     E1001000       16             231801         
1444935548     E1001001       32             231801         
1447387416     E1002000       64             232205         
1452294444     E1002000       64             233014         
1457223528     E1002000       64             233826         
1461926396     E1002000       64             234600         
1466657348     E1002000       64             235380         
1468535068     E1001000       16             235690         
1468538288     E1001001       32             235690         
1471321672     E1002000       64             236149         
1476266868     E1002000       64             236966         
1481334904     E1002000       64             237802         
1486401492     E1002000       64             238639         
1486452332     E1001000       16             238647         
1486455352     E1001001       32             238648         
1491574544     E1002000       64             239493         
1496581220     E1002000       64             240320         
1501566512     E1002000       64             241144         
1506383976     E1002000       64             241940         
1508551404     E1001000       16             242298         
1508554568     E1001001       32             242299         
1511234120     E1002000       64             242742         
1516140236     E1002000       64             243554         
1521210652     E1002000       64             244393         
1526291256     E1002000       64             245235         
1531328060     E1002000       64             246069         
1536389580     E1002000       64             246905         
1541307372     E1002000       64             247717         
1542503928     E1001000       16             247915         
1542506948     E1001001       32             247915         
1546304128     E1002000       64             248541         
1551395764     E1002000       64             249383         
1556426108     E1002000       64             250215         
1561248972     E1002000       64             251011         
1563766164     E1001000       16             251428         
1563769148     E1001001       32             251428         
1566001932     E1002000       64             251798         
1571014140     E1002000       64             252627         
1575906276     E1002000       64             253439         
1580907716     E1002000       64             254268         
1584966032     E1001000       16             254940         
1584969232     E1001001       32             254941         
1585833788     E1002000       64             255085         
1590813456     E1002000       64             255912         
1595781644     E1002000       64             256736         
1600587452     E1002000       64             257532         
1605380260     E1002000       64             258327         
1610282636     E1002000       64             259141         
1615275500     E1002000       64             259970         
1619525884     E1001000       16             260676         
1619529068     E1001001       32             260676         
1620299532     E1002000       64             260804         
1625365076     E1002000       64             261646         
1630233748     E1002000       64             262455         
1635110672     E1002000       64             263264         
1637583940     E1001000       16             263674         
1637586960     E1001001       32             263675         
1640179712     E1002000       64             264106         
1645286324     E1002000       64             264955         
1650448888     E1002000       64             265814         
1655397272     E1002000       64             266638         
1660216852     E1002000       64             267440         
1661071704     E1001000       16             267582         
1661074792     E1001001       32             267583         
1664985140     E1002000       64             268232         
1669787648     E1002000       64             269031         
1674600552     E1002000       64             269833         
1679495108     E1002000       64             270647         
1684223580     E1002000       64             271434         
1686729868     E1001000       16             271851         
1686732888     E1001001       32             271851         
1688966476     E1002000       64             272223         
1693827416     E1002000       64             273032         
1698817020     E1002000       64             273864         
1703852268     E1002000       64             274703         
1708944528     E1002000       64             275552         
1713805740     E1002000       64             276361         
1718651184     E1002000       64             277168         
1719845292     E1001000       16             277368         
1719848408     E1001001       32             277368         
1723422816     E1002000       64             277962         
1728323488     E1002000       64             278777         
1733243400     E1002000       64             279596         
1738200608     E1002000       64             280420         
1743064940     E1002000       64             281232         
1746084040     E1001000       16             281735         
1746087024     E1001001       32             281735         
1747860380     E1002000       64             282031         
1752527556     E1002000       64             282808         
1757215396     E1002000       64             283587         
1761990764     E1002000       64             284384         
1766697128     E1002000       64             285168         
1771381780     E1002000       64             285950         
1776015712     E1002000       64             286724         
1777974340     E1001000       16             287051         
1777977468     E1001001       32             287052         
1780811740     E1002000       64             287524         
1785719852     E1002000       64             288343         
1790684192     E1002000       64             289172         
1795649752     E1002000       64             290001         
1800553736     E1002000       64             290820         
1805454216     E1002000       64             291640         
1810185480     E1002000       64             292431         
1814949804     E1002000       64             293228         
1819783940     E1002000       64             294037         
1824614036     E1002000       64             294847         
1829529928     E1002000       64             295668         
1834236444     E1002000       64             296455         
1838996984     E1002000       64             297252         
1843808216     E1002000       64             298059         
1848689384     E1002000       64             298875         
1853552528     E1002000       64             299692         
1858264340     E1002000       64             300481         
1863019308     E1002000       64             301276         
1867824308     E1002000       64             302080         
1872562748     E1002000       64             302877         
1877100708     E1002000       64             303639         
1881043708     E1001000       16             304300         
1881046812     E1001001       32             304300         
1881568860     E1002000       64             304388         
1886026352     E1002000       64             305135         
1890506328     E1002000       64             305887         
1894898744     E1002000       64             306624         
1899305840     E1002000       64             307363         
1899965832     E1001000       16             307474         
1899968828     E1001001       32             307475         
1903906664     E1002000       64             308135         
1908640420     E1002000       64             308932         
1913471124     E1002000       64             309744         
1918369984     E1002000       64             310568         
1918730180     E1001000       16             310628         
1918733228     E1001001       32             310629         
1923179220     E1002000       64             311377         
1927927920     E1002000       64             312174         
1932728428     E1002000       64             312981         
1936335360     E1001000       16             313586         
1936338460     E1001001       32             313586         
1937669836     E1002000       64             313810         
1942602760     E1002000       64             314642         
1947589692     E1002000       64             315481         
1952371160     E1002000       64             316285         
1956379312     E1001000       16             316959         
1956382416     E1001001       32             316960         
1957122660     E1002000       64             317084         
1961948676     E1002000       64             317896         
1966747396     E1002000       64             318703         
1971338272     E1002000       64             319474         
1975918864     E1002000       64             320246         
1980438812     E1002000       64             321008         
1980791276     E1001000       16             321067         
1980794116     E1001001       32             321068         
1985068000     E1002000       64             321788         
1989723708     E1002000       64             322572         
1994452852     E1002000       64             323369         
1999113992     E1002000       64             324156         
2003806940     E1002000       64             324947         
2004454836     E1001000       16             325057         
2004457900     E1001001       32             325057         
2008594860     E1002000       64             325757         
2013285576     E1002000       64             326548         
2017932460     E1002000       64             327330         
2022709308     E1002000       64             328134         
2027579960     E1002000       64             328956         
2032539100     E1002000       64             329793         
2037515096     E1002000       64             330634         
2042240680     E1002000       64             331431         
2045747304     E1001000       16             332023         
2045750260     E1001001       32             332023         
2046907876     E1002000       64             332218         
2051615392     E1002000       64             333012         
2056316696     E1002000       64             333807         
2060940888     E1002000       64             334588         
2065447132     E1002000       64             335350         
2065955664     E1001000       16             335436         
2065958392     E1001001       32             335437         
2070060964     E1002000       64             336130         
2074653980     E1002000       64             336907         
2079240604     E1002000       64             337681         
2083712380     E1002000       64             338435         
2088258932     E1002000       64             339205         
2092745216     E1002000       64             339962         
2097191380     E1002000       64             340714         
2099545408     E1001000       16             341112         
2099548372     E1001001       32             341113         
2101757524     E1002000       64             341485         
2106392320     E1002000       64             342270         
2111160376     E1002000       64             343079         
2115878224     E1002000       64             343876         
2120523720     E1002000       64             344660         
2120784208     E1001000       16             344704         
2120787188     E1001001       32             344705         
2125291888     E1002000       64             345467         
2130173780     E1002000       64             346291         
2135056044     E1002000       64             347118         
2140042960     E1002000       64             347962         
2144882840     E1002000       64             348781         
2149596408     E1002000       64             349578         
2150955252     E1001000       16             349807         
2150958340     E1001001       32             349807         
2154259196     E1002000       64             350365         
2159023556     E1002000       64             351169         
2163802200     E1002000       64             351978         
2168627112     E1002000       64             352795         
2173432812     E1002000       64             353609         
2178280780     E1002000       64             354431         
2182981336     E1002000       64             355227         
2187629900     E1002000       64             356014         
2192208596     E1002000       64             356791         
2196756956     E1002000       64             357563         
2198883340     E1001000       16             357923         
2198886268     E1001001       32             357924         
2201309132     E1002000       64             358335         
2205980216     E1002000       64             359127         
2210747300     E1002000       64             359933         
2215581580     E1002000       64             360753         
2219362244     E1001000       16             361395         
2219365176     E1001001       32             361395         
2220392988     E1002000       64             361569         
2225279668     E1002000       64             362396         
2229989932     E1002000       64             363195         
2234609460     E1002000       64             363980         
2237970164     E1001000       16             364550         
2237973116     E1001001       32             364551         
2239342972     E1002000       64             364784         
2244137712     E1002000       64             365598         
2248992348     E1002000       64             366422         
2253859336     E1002000       64             367246         
2258578280     E1002000       64             368046         
2263465336     E1002000       64             368875         
2268410704     E1002000       64             369714         
2273122088     E1002000       64             370513         
2277779804     E1002000       64             371305         
2282578188     E1002000       64             372119         
2287409880     E1002000       64             372941         
2292279224     E1002000       64             373767         
2297052912     E1002000       64             374579         
2301612600     E1002000       64             375354         
2306197876     E1002000       64             376133         
2307764500     E1001000       16             376398         
2307767464     E1001001       32             376399         
2310873780     E1002000       64             376927         
2315600092     E1002000       64             377731         
2320400576     E1002000       64             378548         
2325148196     E1002000       64             379355         
2328536736     E1001000       16             379931         
2328539492     E1001001       32             379931         
2329866376     E1002000       64             380157         
2334733320     E1002000       64             380986         
2339650704     E1002000       64             381822         
2344597552     E1002000       64             382664         
2349374604     E1002000       64             383478         
2351735908     E1001000       16             383880         
2351738788     E1001001       32             383881         
2354155024     E1002000       64             384292         
2359122968     E1002000       64             385139         
2364134456     E1002000       64             385993         
2367455964     E1001000       16             386560         
2367458824     E1001001       32             386560         
2369170564     E1002000       64             386852         
2374080408     E1002000       64             387689         
2378876392     E1002000       64             388505         
2383567936     E1002000       64             389305         
2388262824     E1002000       64             390104         
2393097356     E1002000       64             390928         
2397985308     E1002000       64             391762         
2402912216     E1002000       64             392604         
2407729772     E1002000       64             393425         
2412390440     E1002000       64             394222         
2414929848     E1001000       16             394657         
2414932660     E1001001       32             394657         
2417085816     E1002000       64             395024         
2421828232     E1002000       64             395833         
2426656812     E1002000       64             396657         
2431476856     E1002000       64             397482         
2436120844     E1002000       64             398276         
2440270052     E1001000       16             398983         
2440272864     E1001001       32             398984         
2440747328     E1002000       64             399065         
2445368900     E1002000       64             399852         
2450048076     E1002000       64             400651         
2454702924     E1002000       64             401448         
2459428764     E1002000       64             402257         
2461641904     E1001000       16             402635         
2461644672     E1001001       32             402635         
2464013712     E1002000       64             403039         
2468560092     E1002000       64             403816         
2473129656     E1002000       64             404598         
2477753580     E1002000       64             405390         
2482391116     E1002000       64             406184         
2487075964     E1002000       64             406988         
2488652060     E1001000       16             407259         
2488655012     E1001001       32             407260         
2491858464     E1002000       64             407810         
2496423424     E1002000       64             408589         
2501025960     E1002000       64             409376         
2505535600     E1002000       64             410148         
2510125396     E1002000       64             410935         
2514674568     E1002000       64             411714         
2519164412     E1002000       64             412483         
2522967740     E1001000       16             413134         
2522970760     E1001001       32             413134         
2523709088     E1002000       64             413260         
2528398672     E1002000       64             414065         
2533103896     E1002000       64             414871         
2537798948     E1002000       64             415676         
2542370288     E1002000       64             416460         
2547112844     E1002000       64             417272         
2551916476     E1002000       64             418096         
2556718940     E1002000       64             418920         
2561590364     E1002000       64             419757         
2566270744     E1002000       64             420561         
2570918732     E1002000       64             421358         
2573646460     E1001000       16             421826         
2573649492     E1001001       32             421827         
2575570756     E1002000       64             422157         
2580264536     E1002000       64             422964         
2584940612     E1002000       64             423768         
2589679200     E1002000       64             424582         
2594280104     E1002000       64             425371         
2598850844     E1002000       64             426158         
2602938124     E1001000       16             426867         
2602941144     E1001001       32             426868         
2611941248     E1002000       64             428421         
2616246468     E1002000       64             429158         
2624493764     E1002000       64             430585         
2624914184     E1001000       16             430658         
2624917160     E1001001       32             430658         
2628644420     E1002000       64             431302         
2633080720     E1002000       64             432069         
2637819420     E1002000       64             432888         
2642626220     E1002000       64             433718         
2647490572     E1002000       64             434557         
2652345436     E1002000       64             435396         
2657249644     E1002000       64             436242         
2662128028     E1002000       64             437084         
2666932820     E1002000       64             437913         
2671721228     E1002000       64             438740         
2676306852     E1002000       64             439532         
2680929720     E1002000       64             440328         
2684238912     E1001000       16             440898         
2684241748     E1001001       32             440899         
2685492964     E1002000       64             441115         
2690094380     E1002000       64             441909         
2694743916     E1002000       64             442714         
2699338448     E1002000       64             443508         
2703856968     E1002000       64             444287         
2708317056     E1002000       64             445057         
2712816360     E1002000       64             445831         
2717270088     E1002000       64             446600         
2721773572     E1002000       64             447377         
2726218392     E1002000       64             448147         
2730617684     E1002000       64             448906         
2735023572     E1002000       64             449668         
2739584968     E1002000       64             450455         
2744085376     E1002000       64             451234         
2748667588     E1002000       64             452029         
2753204588     E1002000       64             452815         
2757848704     E1002000       64             453622         
2762367528     E1002000       64             454404         
2764838364     E1001000       16             454832         
2764841352     E1001001       32             454832         
2766910268     E1002000       64             455191         
2771485108     E1002000       64             455983         
2775949228     E1002000       64             456757         
2780440496     E1002000       64             457534         
2785010540     E1002000       64             458326         
2789617132     E1002000       64             459125         
2794246896     E1002000       64             459927         
2798762940     E1002000       64             460708         
2803152592     E1002000       64             461468         
2803331252     E1001000       16             461498         
2803334232     E1001001       32             461499         
2807675668     E1002000       64             462250         
2812195368     E1002000       64             463032         
2816802960     E1002000       64             463828         
2821312232     E1002000       64             464608         
2825774588     E1002000       64             465382         
2830191100     E1002000       64             466149         
2834681112     E1002000       64             466928         
2839185880     E1002000       64             467710         
2843711404     E1002000       64             468494         
2848225880     E1002000       64             469279         
2852755280     E1002000       64             470068         
2857284204     E1002000       64             470855         
2861737060     E1002000       64             471629         
2861912788     E1001000       16             471660         
2861915732     E1001001       32             471660         
2866281140     E1002000       64             472419         
2870952616     E1002000       64             473230         
2875661776     E1002000       64             474049         
2879276420     E1001000       16             474677         
2879279432     E1001001       32             474677         
2880393208     E1002000       64             474871         
2885003960     E1002000       64             475670         
2889538548     E1002000       64             476457         
2894017216     E1002000       64             477237         
2898205808     E1001000       16             477971         
2898208824     E1001001       32             477972         
2898418536     E1002000       64             478008         
2902716276     E1002000       64             478758         
2907020012     E1002000       64             479510         
2911293680     E1002000       64             480257         
2915629468     E1002000       64             481016         
2919984648     E1002000       64             481778         
2924387448     E1002000       64             482548         
2928789032     E1002000       64             483317         
2933136284     E1002000       64             484079         
2933840832     E1001000       16             484202         
2933843596     E1001001       32             484203         
2937576320     E1002000       64             484856         
2942085784     E1002000       64             485645         
2946652876     E1002000       64             486444         
2951212132     E1002000       64             487244         
2955863784     E1002000       64             488058         
2960512332     E1002000       64             488872         
2965043584     E1002000       64             489666         
2969534200     E1002000       64             490453         
2969762804     E1001000       16             490494         
2969765728     E1001001       32             490494         
2974150360     E1002000       64             491262         
2978835888     E1002000       64             492084         
2983629720     E1002000       64             492926         
2988205312     E1001000       16             493728         
2988208244     E1001001       32             493729         
2988496780     E1002000       64             493780         
2993439936     E1002000       64             494646         
2998102156     E1002000       64             495463         
3002801800     E1002000       64             496285         
3007428860     E1002000       64             497096         
3012020012     E1002000       64             497903         
3016675528     E1002000       64             498722         
3021312080     E1002000       64             499536         
3025791612     E1002000       64             500323         
3027341820     E1001000       16             500596         
3027344676     E1001001       32             500597         
3030424420     E1002000       64             501137         
3035048340     E1002000       64             501949         
3039659068     E1002000       64             502758         
3044308308     E1002000       64             503575         
3048981492     E1002000       64             504397         
3053526832     E1002000       64             505194         
3056049580     E1001000       16             505636         
3056052408     E1001001       32             505637         
3058082212     E1002000       64             505993         
3062686188     E1002000       64             506802         
3067402420     E1002000       64             507631         
3072037144     E1002000       64             508445         
3076493612     E1001000       16             509228         
3076496472     E1001001       32             509229         
3076629676     E1002000       64             509252         
3081281304     E1002000       64             510069         
3085996000     E1002000       64             510900         
3090619044     E1002000       64             511715         
3095161380     E1002000       64             512514         
3099667092     E1002000       64             513306         
3100067688     E1001000       16             513376         
3100070528     E1001001       32             513377         
3104244600     E1002000       64             514110         
3108925920     E1002000       64             514934         
3113631280     E1002000       64             515763         
3118390680     E1002000       64             516602         
3123198596     E1002000       64             517449         
3125088200     E1001000       16             517782         
3125090896     E1001001       32             517782         
3127921980     E1002000       64             518281         
3132449904     E1002000       64             519077         
3137037560     E1002000       64             519887         
3141643836     E1002000       64             520698         
3146285520     E1002000       64             521515         
3150907424     E1002000       64             522329         
3155421360     E1002000       64             523126         
3159846248     E1002000       64             523905         
3160121248     E1001000       16             523954         
3160124068     E1001001       32             523955         
3164372592     E1002000       64             524702         
3168960012     E1002000       64             525511         
3173572164     E1002000       64             526326         
3177794272     E1001000       16             527070         
3177797108     E1001001       32             527070         
3178244472     E1002000       64             527150         
3182871352     E1002000       64             527969         
3187539976     E1002000       64             528793         
3192026276     E1002000       64             529585         
3194989280     E1001000       16             530106         
3194991972     E1001001       32             530107         
3196475956     E1002000       64             530369         
3200984352     E1002000       64             531164         
3205414888     E1002000       64             531945         
3209768240     E1002000       64             532712         
3211656684     E1001000       16             533045         
3211659408     E1001001       32             533045         
3214180404     E1002000       64             533492         
3218554312     E1002000       64             534266         
3222963264     E1002000       64             535048         
3227349556     E1002000       64             535822         
3231731860     E1002000       64             536597         
3236162536     E1002000       64             537381         
3240593052     E1002000       64             538165         
3245109872     E1002000       64             538967         
3249503472     E1002000       64             539746         
3253954860     E1002000       64             540536         
3258451472     E1002000       64             541332         
3262906880     E1002000       64             542122         
3267216900     E1002000       64             542886         
3270020484     E1001000       16             543383         
3270023140     E1001001       32             543384         
3271595816     E1002000       64             543663         
3275978876     E1002000       64             544440         
3280393088     E1002000       64             545224         
3283994632     E1001000       16             545864         
3283997440     E1001001       32             545865         
3284861948     E1002000       64             546018         
3289267048     E1002000       64             546800         
3293696344     E1002000       64             547587         
3298151364     E1002000       64             548379         
3302487072     E1002000       64             549148         
3305230204     E1001000       16             549635         
3305232896     E1001001       32             549635         
3306798580     E1002000       64             549913         
3311182624     E1002000       64             550690         
3315527064     E1002000       64             551461         
3320051908     E1002000       64             552266         
3324529768     E1002000       64             553062         
3328900716     E1002000       64             553839         
3333285892     E1002000       64             554619         
3334951724     E1001000       16             554915         
3334954448     E1001001       32             554915         
3337672312     E1002000       64             555398         
3342110928     E1002000       64             556187         
3346567700     E1002000       64             556982         
3351114980     E1002000       64             557791         
3355691980     E1002000       64             558605         
3358490020     E1001000       16             559101         
3358492784     E1001001       32             559102         
3360237220     E1002000       64             559412         
3364587580     E1002000       64             560186         
3369101496     E1002000       64             560988         
3373563280     E1002000       64             561782         
3376117304     E1001000       16             562237         
3376119984     E1001001       32             562238         
3377992616     E1002000       64             562572         
3382404824     E1002000       64             563358         
3386870692     E1002000       64             564155         
3391405076     E1002000       64             564964         
3395840836     E1002000       64             565754         
3397159996     E1001000       16             565988         
3397162772     E1001001       32             565989         
3400265080     E1002000       64             566540         
3404769316     E1002000       64             567345         
3409344240     E1002000       64             568161         
3413928776     E1002000       64             568981         
3418420052     E1002000       64             569782         
3422810772     E1002000       64             570564         
3423972048     E1001000       16             570771         
3423975016     E1001001       32             570771         
3427126428     E1002000       64             571334         
3431528128     E1002000       64             572118         
3435955992     E1002000       64             572910         
3440308444     E1002000       64             573687         
3444634572     E1002000       64             574458         
3448891364     E1002000       64             575218         
3451886740     E1001000       16             575752         
3451900428     E1001001       32             575755         
3453096496     E1002000       64             575967         
3457289452     E1002000       64             576714         
3461533384     E1002000       64             577471         
3465782864     E1002000       64             578231         
3470065420     E1002000       64             578998         
3474382996     E1002000       64             579769         
3477681152     E1001000       16             580357         
3477684072     E1001001       32             580357         
3478674176     E1002000       64             580534         
3483024116     E1002000       64             581311         
3487454300     E1002000       64             582103         
3489454212     E1001000       16             582460         
3489457104     E1001001       32             582461         
3491915892     E1002000       64             582902         
3496431084     E1002000       64             583709         
3500843768     E1002000       64             584495         
3503785628     E1001000       16             585021         
3503788512     E1001001       32             585021         
3505181948     E1002000       64             585270         
3509614024     E1002000       64             586062         
3514108976     E1002000       64             586866         
3518664672     E1002000       64             587680         
3519338088     E1001000       16             587801         
3519340964     E1001001       32             587801         
3523212284     E1002000       64             588494         
3527702700     E1002000       64             589298         
3532211836     E1002000       64             590105         
3536285684     E1001000       16             590835         
3536288680     E1001001       32             590836         
3536659324     E1002000       64             590902         
3540997384     E1002000       64             591676         
3545253772     E1002000       64             592438         
3549446248     E1002000       64             593190         
3553800612     E1002000       64             593970         
3558422176     E1002000       64             594799         
3560452224     E1001000       16             595162         
3560455084     E1001001       32             595163         
3563203452     E1002000       64             595655         
3567992936     E1002000       64             596512         
3572791712     E1002000       64             597371         
3577508184     E1002000       64             598217         
3582093284     E1002000       64             599039         
3586724952     E1002000       64             599871         